{
  "root": true,
  "api": {
    "projectId": "placeholder",
    "dataset": "placeholder"
  },
  "project": {
    "name": "Next.js Comment-enabled blog",
    "basePath": "/studio"
  },
  "plugins": [
    "@sanity/base",
    "@sanity/components",
    "@sanity/default-layout",
    "@sanity/default-login",
    "@sanity/desk-tool",
    "intl-input"
  ],
  "env": {
    "development": {
      "plugins": [
        "@sanity/vision"
      ]
    }
  },
  "parts": [
    {
      "name": "part:@sanity/base/schema",
      "path": "./schemas/schema"
    },
    {
      "name": "part:@sanity/desk-tool/structure",
      "path": "./deskStructure.js"
    }
  ]
}
